[
    {
        "ItemID":"sword",
        "ItemName":"Sword",
        "Description":"One Sharpy boye..",
        "ActionName":"Equip",
        "isModifier":0,
        "ItemType":"Weapon",
        "Stats":[
            {
                "StatType":"Power",
                "BaseValue":2,
                "StatName":"Power"
            },
            {
                "StatType":"Vitality",
                "BaseValue":1,
                "StatName":"Vitality"
            },
            {
                "StatType":"AttackSpeed",
                "BaseValue":4,
                "StatName":"AtkSpd"
            }
        ]
    },
    {
        "ItemID":"potion",
        "ItemName":"Potion",
        "Description":"Drink this if you injured yourself..",
        "ActionName":"Drink",
        "ItemType":"Consumable",
        "isModifier":0
    },
    {
        "ItemID":"staff",
        "ItemName":"Staff",
        "Description":"Mr. Sparkles",
        "ActionName":"Equip",
        "isModifier":0,
        "ItemType":"Weapon",
        "Stats":[
            {
                "BaseValue":1,
                "StatName":"Power"
            },
            {
                "BaseValue":1,
                "StatName":"Vitality"
            }
        ]
    }
]